\relax 
\@writefile{toc}{\contentsline {section}{\numberline {1}Code Design}{1}}
\@writefile{toc}{\contentsline {section}{\numberline {2}Finding $k(n)$}{1}}
\@writefile{toc}{\contentsline {section}{\numberline {3}Determining $f(n)$}{4}}
\@writefile{toc}{\contentsline {subsection}{\numberline {3.1}Random weights (Dimension 0)}{4}}
\@writefile{toc}{\contentsline {subsection}{\numberline {3.2}Dimension 2}{4}}
\@writefile{toc}{\contentsline {subsection}{\numberline {3.3}Dimension 3}{5}}
\@writefile{toc}{\contentsline {subsection}{\numberline {3.4}Dimension 4}{5}}
\@writefile{toc}{\contentsline {section}{\numberline {4}Performance}{6}}
\@writefile{toc}{\contentsline {section}{\numberline {5}Other graphics}{8}}
\@writefile{toc}{\contentsline {subsection}{\numberline {5.1}0d $k(n)$ calculation}{8}}
\@writefile{toc}{\contentsline {subsection}{\numberline {5.2}3d $k(n)$ calculation}{9}}
\@writefile{toc}{\contentsline {subsection}{\numberline {5.3}4d $k(n)$ calculation}{10}}
\@writefile{toc}{\contentsline {subsection}{\numberline {5.4}0d running time}{11}}
\@writefile{toc}{\contentsline {subsection}{\numberline {5.5}2d running time}{11}}
\@writefile{toc}{\contentsline {subsection}{\numberline {5.6}3d running time}{12}}
\@writefile{toc}{\contentsline {subsection}{\numberline {5.7}4d running time}{13}}
